
======================================================
클라우드 서버
======================================================

Azure.microsoft.com
kwavego@gmail.com / Openedu7474!@


ssh lowgoadmin@20.214.191.215

lowgoadmin
Openedu7474!

sudo 
Openedu7474!

======================================================
깃 최초 올리기
======================================================

gitlab
gilberteen , tuesday0204

sudo git init

sudo git config  user.name “gilberteen”
sudo git config  user.email “gilberteen@gmail.com”

sudo git remote add  -t main origin https://gitlab.com/gilberteen/openlawgoai.git
sudo git remote set-url origin https://gitlab.com/gilberteen/openlawgoai.git

sudo git branch -M main

sudo git pull origin main
sudo git add .
sudo git commit -m "update chatbot"
## - GitLab Project -> Settings -> Repository -> Protected Branches -> [Expand] 버튼 클릭
sudo git push -uf origin main


[git upload]

sudo git pull origin main
sudo git add .
sudo git commit -m  'update menu'
sudo git push origin main


======================================================
[ 강제 업데이트시 ]
======================================================

cd /home/gilbert_won/openedu
sudo git fetch --all 
sudo git reset --hard origin/main
sudo git pull origin main

[
======================================================
프로세스 실행
======================================================


sudo pkill -f uwsgi -9

sudo service uwsgi restart
sudo service nginx restart

영구 실행
uwsgi /home/gilbert_won/uwsgi/uwsgi.ini &






[ 프로세스 확인 ]
cd /home/gilbert_won/drop2drop

ps -ef | grep manage_admin_443

sudo kill -9 4951


[ 관리자 서버 ]

-백그라운드 실행

클라 접속 경로 : http://api.carewellplus.co.kr/api_cc/v1/get_question_history_list?user_id=publiccare00001

cd /home/gilbert_won/drop2drop


sudo nohup python3 -u manage_admin_80.py run &
sudo nohup python3 -u manage_admin_443.py run &

sudo nohup python3 -u manage_admin_5004.py run &

sudo nohup python3 -u manage_admin_5004_80.py run &

sudo  python3 -u manage_admin_5004.py run

- 임시 실행

sudo python3 manage_admin_80.py run
sudo python3 manage_admin_443.py run
sudo python3 manage_admin_5004.py run
sudo python3 manage_admin_5004_80.py run

======================================================
aws linux 설치
======================================================
- aws 에서 amazon linux로 선택
- 네트워크 보안에 5000포트를 해제

- aws ternmina connect
cd <인증서 저장 경로로 이동>

aws  ec2 에 있는 경로확인후 접속함
ssh -i "smart_farm_seoul_0705b.pem" ec2-user@ec2-3-34-135-189.ap-northeast-2.compute.amazonaws.com

- create e2c
 - install git
 	sudo yum update -y
 	sudo yum install git -y
 	git version
 	
- pull git source
  mkdir smarthealth
  chmod 777 smarthealth
  
  git clone https://gitlab.com/gilberteen/informark_smart_health_server.git
  
   

======================================================
install pyton3 [linux os]
======================================================
  - install pyton3 [linux os]
    cd /opt
    sudo wget https://www.python.org/ftp/python/3.8.7/Python-3.8.7.tgz
    or
    sudo curl -O https://www.python.org/ftp/python/3.8.5/Python-3.8.5.tgz
    
    sudo tar xzf Python-3.8.7.tgz
    cd Python3.8
    sudo ./configure --enable-optimizations
    sudo yum install gcc  --> 위에 것이 오류가 있을떄만 하고 

    or
    sudo apt install gcc

    다시
    sudo ./configure --enable-optimizations
    
    sudo apt install make
    sudo make altinstall
    
    - setup path
      which python3.8  -->   여기 경로를 등록한다.  /usr/local/bin/python3.8
      
      $alias python3='/usr/local/bin/python3.8'
      $ . ~/.bashrc
      $ python3 --version
            
       $ alias python='/usr/local/bin/python3.8'
      $ . ~/.bashrc
      $ python --version
      
======================================================
페케지 설치
======================================================
오류나면.
sudo -H pip3 install --upgrade --ignore-installed pip setuptools

꼭 버전 확인할것
pip3 freeze 로 각 모듈의 버전을 확인할수 있음.

1. pip3 가 pyton3.8가 맵핑되었으면 그냥 pip3로 인스톨
pip3 --version 

으로 확인 가능하다.

sudo pip3 install -U openai
sudo pip3 install -U WTForms==2.3.3
sudo pip3 install -U Flask==1.1.4
sudo pip3 install -U Flask==1.1.2

sudo pip3 install -U flask-sqlalchemy==2.5.1
sudo pip3 install -U flask_wtf==0.15.1
sudo pip3 install  requests==2.25.1
sudo pip3 install -U flask_script==2.0.6
sudo pip3 install mysqlclient
-->오류시
sudo apt install python3-dev default-libmysqlclient-dev build-essential
pip install mysqlclient

sudo pip3 install PyMySQL==1.0.2
sudo pip3 install requests==2.25.1
sudo pip3 install pyfcm
sudo pip3 install -U flask-cors
sudo pip3 install boto3
sudo pip3 install botocore
sudo pip3 install -U Flask-Mail
sudo pip3 install -U Flask-AWSCLI
sudo pip3 install -U WTForms==2.3.3
sudo pip3 -m pip install bcrypt
sudo pip3 install -U pandas


sudo pip3 uninstall WTForms==2.3.3
sudo pip3 uninstall Flask==1.1.4
sudo pip3 uninstall flask-sqlalchemy
sudo pip3 uninstall flask_wtf
sudo pip3 uninstall  requests
sudo pip3 uninstall flask_script
sudo pip3 uninstall mysqlclient

sudo pip3 uninstall PyMySQL
sudo pip3 uninstall request
sudo pip3 uninstall pyfcm
sudo pip3 uninstall flask-cors
sudo pip3 -m pip uninstall boto3
sudo pip3 -m pip uninstall botocore
sudo python3 -m pip install Flask-Mail
sudo python3 -m pip install Flask-AWSCLI
sudo python3 -m pip install WTForms==2.3.3
sudo python3 -m pip install bcrypt


2. pip3 가 pyton3.8가 맵핑 안되었을때는 수동으로

pip3 list

sudo python3.7 -m pip3 install Flask==1.1.4
sudo python3.8 -m pip install flask-sqlalchemy
sudo python3.8 -m pip install  flask_wtf==0.15.1
sudo python3.8 -m pip install requests
sudo python3.8 -m pip install flask_script
sudo python3.8 -m pip install  Flask-Script==2.0.6
sudo python3.8 -m pip install mysqlclient
sudo python3.8 -m pip install PyMySQL
sudo python3.8 -m pip install request
sudo python3.8 -m pip install pyfcm
sudo python3.8 -m pip install -U  flask-cors
sudo python3.8 -m pip install pandas
sudo python3.8 -m pip install boto3
sudo python3.8 -m pip install botocore
sudo python3.8 -m pip install Flask-Mail
sudo python3.8 -m pip install Flask-AWSCLI
sudo python3.8 -m pip install WTForms==2.3.3
sudo python3.8 -m pip  install markupsafe==2.0.1


sudo python3 -m pip uninstall Flask==1.1.4
sudo python3 -m pip uninstall flask-sqlalchemy
pip install flask-wtf
sudo python3 -m pip uninstall flask_wtf
sudo python3 -m pip uninstall requests
sudo python3 -m pip uninstall flask_script
sudo python3 -m pip uninstall mysqlclient
sudo python3 -m pip uninstall PyMySQL
sudo python3 -m pip uninstall request
sudo python3 -m pip uninstall pyfcm
sudo python3 -m pip uninstall flask-cors
sudo python3 -m pip uninstall pandas


------------------------------------------------------------------
[mysql 운영]
------------------------------------------------------------------
mysql
root , Openedu7474!

mysql -u root -p

- db: 생성
CREATE DATABASE openlawgoai default CHARACTER SET UTF8;
flush privileges;

create USER 'openlawgoai'@'localhost' IDENTIFIED BY '1!Openlawgoai';
create USER 'openlawgoai'@'%' IDENTIFIED BY '1!Openlawgoai';
flush privileges;

- 권한부유
grant all privileges on *.* to 'openlawgoai'@'%' with grant option;
grant all privileges on *.* to 'openlawgoai'@'localhost' with grant option;
flush privileges;

- 계정 조회
show databases;
use mysql;
select user, host  from user;

-방호벽 해제

https://yoshikixdrum.tistory.com/217
